{
  "project_info": {
    "project_number": "137071204968",
    "firebase_url": "https://cargill-509c8.firebaseio.com",
    "project_id": "cargill-509c8",
    "storage_bucket": "cargill-509c8.appspot.com"
  },
  "client": [
    {
      "client_info": {
        "mobilesdk_app_id": "1:137071204968:android:885696a88e6b3643",
        "android_client_info": {
          "package_name": "com.appcomm.cargillTest"
        }
      },
      "oauth_client": [
        {
          "client_id": "137071204968-ucnhnabuc3n24c3f0n984u8jiksj0err.apps.googleusercontent.com",
          "client_type": 3
        },
        {
          "client_id": "137071204968-ucnhnabuc3n24c3f0n984u8jiksj0err.apps.googleusercontent.com",
          "client_type": 3
        }
      ],
      "api_key": [
        {
          "current_key": "AIzaSyAbkZT25XCswMvD9TPWoe3hTmIfQMRrGCs"
        }
      ],
      "services": {
        "analytics_service": {
          "status": 1
        },
        "appinvite_service": {
          "status": 1,
          "other_platform_oauth_client": []
        },
        "ads_service": {
          "status": 2
        }
      }
    }
  ],
  "configuration_version": "1"
}